{
  "project_info": {
    "project_number": "596894391366",
    "firebase_url": "https://mau-binh777.firebaseio.com",
    "project_id": "mau-binh777",
    "storage_bucket": "mau-binh777.appspot.com"
  },
  "client": [
    {
      "client_info": {
        "mobilesdk_app_id": "1:596894391366:android:a7428d1535d7c3918c7e47",
        "android_client_info": {
          "package_name": "com.danhbai.choibai.Vip777.Baucua"
        }
      },
      "oauth_client": [
        {
          "client_id": "596894391366-i65hmpf45af3ccv30abn7gu11iarq21j.apps.googleusercontent.com",
          "client_type": 3
        }
      ],
      "api_key": [
        {
          "current_key": "AIzaSyCZLjBt9sg73MNrbeC92pAUOc-Ui9Mm4KY"
        }
      ],
      "services": {
        "appinvite_service": {
          "other_platform_oauth_client": [
            {
              "client_id": "596894391366-i65hmpf45af3ccv30abn7gu11iarq21j.apps.googleusercontent.com",
              "client_type": 3
            }
          ]
        }
      }
    },
    {
      "client_info": {
        "mobilesdk_app_id": "1:596894391366:android:848eca84db9b89d5",
        "android_client_info": {
          "package_name": "com.danhbai.choibai.Vip777.MauBinh"
        }
      },
      "oauth_client": [
        {
          "client_id": "596894391366-i65hmpf45af3ccv30abn7gu11iarq21j.apps.googleusercontent.com",
          "client_type": 3
        }
      ],
      "api_key": [
        {
          "current_key": "AIzaSyCZLjBt9sg73MNrbeC92pAUOc-Ui9Mm4KY"
        }
      ],
      "services": {
        "appinvite_service": {
          "other_platform_oauth_client": [
            {
              "client_id": "596894391366-i65hmpf45af3ccv30abn7gu11iarq21j.apps.googleusercontent.com",
              "client_type": 3
            }
          ]
        }
      }
    },
    {
      "client_info": {
        "mobilesdk_app_id": "1:596894391366:android:145b7de1c1e3cd448c7e47",
        "android_client_info": {
          "package_name": "com.danhbai.choibai.Vip777.Phom"
        }
      },
      "oauth_client": [
        {
          "client_id": "596894391366-i65hmpf45af3ccv30abn7gu11iarq21j.apps.googleusercontent.com",
          "client_type": 3
        }
      ],
      "api_key": [
        {
          "current_key": "AIzaSyCZLjBt9sg73MNrbeC92pAUOc-Ui9Mm4KY"
        }
      ],
      "services": {
        "appinvite_service": {
          "other_platform_oauth_client": [
            {
              "client_id": "596894391366-i65hmpf45af3ccv30abn7gu11iarq21j.apps.googleusercontent.com",
              "client_type": 3
            }
          ]
        }
      }
    },
    {
      "client_info": {
        "mobilesdk_app_id": "1:596894391366:android:1ad17f37c8193cf28c7e47",
        "android_client_info": {
          "package_name": "com.danhbai.choibai.Vip777.XitoPoker"
        }
      },
      "oauth_client": [
        {
          "client_id": "596894391366-i65hmpf45af3ccv30abn7gu11iarq21j.apps.googleusercontent.com",
          "client_type": 3
        }
      ],
      "api_key": [
        {
          "current_key": "AIzaSyCZLjBt9sg73MNrbeC92pAUOc-Ui9Mm4KY"
        }
      ],
      "services": {
        "appinvite_service": {
          "other_platform_oauth_client": [
            {
              "client_id": "596894391366-i65hmpf45af3ccv30abn7gu11iarq21j.apps.googleusercontent.com",
              "client_type": 3
            }
          ]
        }
      }
    },
    {
      "client_info": {
        "mobilesdk_app_id": "1:596894391366:android:939f8070443518cb8c7e47",
        "android_client_info": {
          "package_name": "com.danhbai.choibai.Vip777.tienlen"
        }
      },
      "oauth_client": [
        {
          "client_id": "596894391366-i65hmpf45af3ccv30abn7gu11iarq21j.apps.googleusercontent.com",
          "client_type": 3
        }
      ],
      "api_key": [
        {
          "current_key": "AIzaSyCZLjBt9sg73MNrbeC92pAUOc-Ui9Mm4KY"
        }
      ],
      "services": {
        "appinvite_service": {
          "other_platform_oauth_client": [
            {
              "client_id": "596894391366-i65hmpf45af3ccv30abn7gu11iarq21j.apps.googleusercontent.com",
              "client_type": 3
            }
          ]
        }
      }
    }
  ],
  "configuration_version": "1"
}